info face="LilyUPC" size=50 bold=0 italic=0 charset="" unicode=0 stretchH=100 smooth=1 aa=1 padding=0,0,0,0 spacing=0,0
common lineHeight=48 base=35 scaleW=512 scaleH=512 pages=1 packed=0
page id=0 file="Lily50white.png"
chars count=94
char id=32   x=0     y=0     width=0     height=0     xoffset=0     yoffset=35    xadvance=12     page=0  chnl=0 
char id=59   x=0     y=0     width=8     height=33     xoffset=3     yoffset=11    xadvance=11     page=0  chnl=0 
char id=93   x=8     y=0     width=9     height=32     xoffset=2     yoffset=9    xadvance=13     page=0  chnl=0 
char id=91   x=17     y=0     width=8     height=32     xoffset=3     yoffset=9    xadvance=13     page=0  chnl=0 
char id=36   x=25     y=0     width=19     height=30     xoffset=2     yoffset=9    xadvance=22     page=0  chnl=0 
char id=106   x=44     y=0     width=19     height=30     xoffset=-6     yoffset=11    xadvance=7     page=0  chnl=0 
char id=92   x=63     y=0     width=15     height=28     xoffset=1     yoffset=10    xadvance=16     page=0  chnl=0 
char id=124   x=78     y=0     width=5     height=28     xoffset=3     yoffset=10    xadvance=8     page=0  chnl=0 
char id=125   x=83     y=0     width=10     height=28     xoffset=1     yoffset=10    xadvance=11     page=0  chnl=0 
char id=123   x=93     y=0     width=10     height=28     xoffset=1     yoffset=10    xadvance=11     page=0  chnl=0 
char id=41   x=103     y=0     width=13     height=28     xoffset=1     yoffset=10    xadvance=14     page=0  chnl=0 
char id=40   x=116     y=0     width=12     height=28     xoffset=2     yoffset=10    xadvance=14     page=0  chnl=0 
char id=63   x=128     y=0     width=22     height=28     xoffset=2     yoffset=8    xadvance=23     page=0  chnl=0 
char id=81   x=150     y=0     width=22     height=28     xoffset=1     yoffset=11    xadvance=22     page=0  chnl=0 
char id=38   x=172     y=0     width=25     height=27     xoffset=1     yoffset=10    xadvance=26     page=0  chnl=0 
char id=113   x=197     y=0     width=18     height=26     xoffset=0     yoffset=17    xadvance=17     page=0  chnl=0 
char id=112   x=215     y=0     width=17     height=26     xoffset=1     yoffset=17    xadvance=17     page=0  chnl=0 
char id=35   x=232     y=0     width=25     height=25     xoffset=2     yoffset=11    xadvance=29     page=0  chnl=0 
char id=37   x=257     y=0     width=20     height=25     xoffset=1     yoffset=11    xadvance=23     page=0  chnl=0 
char id=64   x=277     y=0     width=24     height=25     xoffset=2     yoffset=11    xadvance=27     page=0  chnl=0 
char id=47   x=301     y=0     width=16     height=25     xoffset=2     yoffset=11    xadvance=18     page=0  chnl=0 
char id=58   x=317     y=0     width=8     height=25     xoffset=2     yoffset=11    xadvance=11     page=0  chnl=0 
char id=33   x=325     y=0     width=9     height=25     xoffset=2     yoffset=11    xadvance=11     page=0  chnl=0 
char id=48   x=334     y=0     width=22     height=25     xoffset=1     yoffset=11    xadvance=22     page=0  chnl=0 
char id=57   x=356     y=0     width=20     height=25     xoffset=2     yoffset=11    xadvance=22     page=0  chnl=0 
char id=56   x=376     y=0     width=21     height=25     xoffset=1     yoffset=11    xadvance=22     page=0  chnl=0 
char id=55   x=397     y=0     width=20     height=25     xoffset=2     yoffset=11    xadvance=22     page=0  chnl=0 
char id=54   x=417     y=0     width=21     height=25     xoffset=2     yoffset=11    xadvance=22     page=0  chnl=0 
char id=53   x=438     y=0     width=22     height=25     xoffset=1     yoffset=11    xadvance=22     page=0  chnl=0 
char id=52   x=460     y=0     width=22     height=25     xoffset=1     yoffset=11    xadvance=22     page=0  chnl=0 
char id=51   x=482     y=0     width=22     height=25     xoffset=1     yoffset=11    xadvance=22     page=0  chnl=0 
char id=50   x=0     y=33     width=20     height=25     xoffset=2     yoffset=11    xadvance=22     page=0  chnl=0 
char id=116   x=20     y=33     width=14     height=25     xoffset=-1     yoffset=11    xadvance=11     page=0  chnl=0 
char id=108   x=34     y=33     width=7     height=25     xoffset=1     yoffset=11    xadvance=7     page=0  chnl=0 
char id=107   x=41     y=33     width=19     height=25     xoffset=1     yoffset=11    xadvance=18     page=0  chnl=0 
char id=105   x=60     y=33     width=8     height=25     xoffset=0     yoffset=11    xadvance=7     page=0  chnl=0 
char id=104   x=68     y=33     width=17     height=25     xoffset=1     yoffset=11    xadvance=17     page=0  chnl=0 
char id=103   x=85     y=33     width=18     height=25     xoffset=0     yoffset=17    xadvance=17     page=0  chnl=0 
char id=100   x=103     y=33     width=18     height=25     xoffset=0     yoffset=11    xadvance=17     page=0  chnl=0 
char id=98   x=121     y=33     width=17     height=25     xoffset=1     yoffset=11    xadvance=17     page=0  chnl=0 
char id=90   x=138     y=33     width=20     height=25     xoffset=0     yoffset=11    xadvance=19     page=0  chnl=0 
char id=89   x=158     y=33     width=22     height=25     xoffset=0     yoffset=11    xadvance=20     page=0  chnl=0 
char id=88   x=180     y=33     width=22     height=25     xoffset=0     yoffset=11    xadvance=21     page=0  chnl=0 
char id=87   x=202     y=33     width=30     height=25     xoffset=0     yoffset=11    xadvance=28     page=0  chnl=0 
char id=86   x=232     y=33     width=22     height=25     xoffset=-1     yoffset=11    xadvance=20     page=0  chnl=0 
char id=85   x=254     y=33     width=21     height=25     xoffset=1     yoffset=11    xadvance=22     page=0  chnl=0 
char id=84   x=275     y=33     width=20     height=25     xoffset=0     yoffset=11    xadvance=19     page=0  chnl=0 
char id=83   x=295     y=33     width=19     height=25     xoffset=0     yoffset=11    xadvance=19     page=0  chnl=0 
char id=82   x=314     y=33     width=21     height=25     xoffset=1     yoffset=11    xadvance=21     page=0  chnl=0 
char id=80   x=335     y=33     width=20     height=25     xoffset=1     yoffset=11    xadvance=20     page=0  chnl=0 
char id=79   x=355     y=33     width=22     height=25     xoffset=1     yoffset=11    xadvance=22     page=0  chnl=0 
char id=78   x=377     y=33     width=20     height=25     xoffset=2     yoffset=11    xadvance=22     page=0  chnl=0 
char id=77   x=397     y=33     width=24     height=25     xoffset=2     yoffset=11    xadvance=25     page=0  chnl=0 
char id=76   x=421     y=33     width=19     height=25     xoffset=1     yoffset=11    xadvance=18     page=0  chnl=0 
char id=75   x=440     y=33     width=21     height=25     xoffset=1     yoffset=11    xadvance=20     page=0  chnl=0 
char id=74   x=461     y=33     width=18     height=25     xoffset=0     yoffset=11    xadvance=17     page=0  chnl=0 
char id=73   x=479     y=33     width=8     height=25     xoffset=1     yoffset=11    xadvance=8     page=0  chnl=0 
char id=72   x=487     y=33     width=21     height=25     xoffset=1     yoffset=11    xadvance=21     page=0  chnl=0 
char id=71   x=0     y=58     width=22     height=25     xoffset=1     yoffset=11    xadvance=22     page=0  chnl=0 
char id=70   x=22     y=58     width=19     height=25     xoffset=1     yoffset=11    xadvance=18     page=0  chnl=0 
char id=69   x=41     y=58     width=18     height=25     xoffset=1     yoffset=11    xadvance=18     page=0  chnl=0 
char id=68   x=59     y=58     width=21     height=25     xoffset=1     yoffset=11    xadvance=21     page=0  chnl=0 
char id=67   x=80     y=58     width=19     height=25     xoffset=1     yoffset=11    xadvance=19     page=0  chnl=0 
char id=66   x=99     y=58     width=21     height=25     xoffset=1     yoffset=11    xadvance=21     page=0  chnl=0 
char id=65   x=120     y=58     width=24     height=25     xoffset=0     yoffset=11    xadvance=22     page=0  chnl=0 
char id=49   x=144     y=58     width=14     height=24     xoffset=3     yoffset=12    xadvance=22     page=0  chnl=0 
char id=121   x=158     y=58     width=18     height=24     xoffset=0     yoffset=17    xadvance=16     page=0  chnl=0 
char id=102   x=176     y=58     width=14     height=24     xoffset=-1     yoffset=12    xadvance=11     page=0  chnl=0 
char id=43   x=190     y=58     width=18     height=19     xoffset=2     yoffset=14    xadvance=21     page=0  chnl=0 
char id=62   x=208     y=58     width=16     height=19     xoffset=3     yoffset=15    xadvance=20     page=0  chnl=0 
char id=60   x=224     y=58     width=17     height=19     xoffset=1     yoffset=15    xadvance=19     page=0  chnl=0 
char id=122   x=241     y=58     width=16     height=19     xoffset=0     yoffset=17    xadvance=15     page=0  chnl=0 
char id=120   x=257     y=58     width=18     height=19     xoffset=0     yoffset=17    xadvance=16     page=0  chnl=0 
char id=119   x=275     y=58     width=24     height=19     xoffset=0     yoffset=17    xadvance=23     page=0  chnl=0 
char id=118   x=299     y=58     width=17     height=19     xoffset=0     yoffset=17    xadvance=15     page=0  chnl=0 
char id=117   x=316     y=58     width=17     height=19     xoffset=1     yoffset=17    xadvance=17     page=0  chnl=0 
char id=115   x=333     y=58     width=17     height=19     xoffset=0     yoffset=17    xadvance=16     page=0  chnl=0 
char id=114   x=350     y=58     width=13     height=19     xoffset=1     yoffset=17    xadvance=13     page=0  chnl=0 
char id=111   x=363     y=58     width=18     height=19     xoffset=0     yoffset=17    xadvance=17     page=0  chnl=0 
char id=110   x=381     y=58     width=17     height=19     xoffset=1     yoffset=17    xadvance=17     page=0  chnl=0 
char id=109   x=398     y=58     width=25     height=19     xoffset=1     yoffset=17    xadvance=25     page=0  chnl=0 
char id=101   x=423     y=58     width=17     height=19     xoffset=0     yoffset=17    xadvance=16     page=0  chnl=0 
char id=99   x=440     y=58     width=15     height=19     xoffset=1     yoffset=17    xadvance=15     page=0  chnl=0 
char id=97   x=455     y=58     width=18     height=19     xoffset=0     yoffset=17    xadvance=17     page=0  chnl=0 
char id=44   x=473     y=58     width=8     height=14     xoffset=1     yoffset=29    xadvance=8     page=0  chnl=0 
char id=42   x=481     y=58     width=12     height=13     xoffset=1     yoffset=11    xadvance=15     page=0  chnl=0 
char id=61   x=493     y=58     width=18     height=12     xoffset=3     yoffset=17    xadvance=21     page=0  chnl=0 
char id=34   x=0     y=83     width=16     height=11     xoffset=1     yoffset=7    xadvance=17     page=0  chnl=0 
char id=39   x=16     y=83     width=9     height=10     xoffset=2     yoffset=8    xadvance=11     page=0  chnl=0 
char id=126   x=25     y=83     width=18     height=7     xoffset=1     yoffset=11    xadvance=19     page=0  chnl=0 
char id=46   x=43     y=83     width=8     height=7     xoffset=1     yoffset=29    xadvance=8     page=0  chnl=0 
char id=96   x=51     y=83     width=9     height=7     xoffset=1     yoffset=11    xadvance=11     page=0  chnl=0 
char id=45   x=60     y=83     width=18     height=5     xoffset=3     yoffset=21    xadvance=21     page=0  chnl=0 
char id=94   x=78     y=83     width=10     height=5     xoffset=2     yoffset=14    xadvance=13     page=0  chnl=0 
char id=95   x=88     y=83     width=19     height=4     xoffset=1     yoffset=36    xadvance=19     page=0  chnl=0 
